[
  {
    "name" : "Child ",
    "code" : "9999",
    "created_at" : null,
    "updated_at" : null,
    "photo" : null,
    "deleted_at" : null,
    "x" : null,
    "y" : null,
    "z" : null,
    "gps_latitude" : "50",
    "gps_longitude" : "36",
    "in_mall" : null,
    "in_mall_time" : null,
    "photo_landscape" : null,
    "token" : "9fe264fb35ffebeef6fe0e5b89a3ebc0"
  },
  {
    "name" : "Child ",
    "code" : "9999",
    "created_at" : null,
    "updated_at" : null,
    "photo" : null,
    "deleted_at" : null,
    "x" : null,
    "y" : null,
    "z" : null,
    "gps_latitude" : "50",
    "gps_longitude" : "36",
    "in_mall" : null,
    "in_mall_time" : null,
    "photo_landscape" : null,
    "token" : "9fe264fb35ffebeef6fe0e5b89a3ebc0"
  }
]
