[
  {
    "name" : "Abc ",
    "description" : "",
    "mall_id" : null,
    "created_at" : null,
    "updated_at" : null,
    "walls" : null,
    "image" : null,
    "vertexes" : null,
    "color" : "#b651a0",
    "map_image" : null,
    "width" : 121,
    "height" : 120,
    "map_offset_x" : 5,
    "map_offset_y" : 5,
    "wall_size" : 0.2,
    "deleted_at" : null,
    "px_walls" : null
  },
  {
    "name" : "Xyz ",
    "description" : "",
    "mall_id" : null,
    "created_at" : null,
    "updated_at" : 1490099879,
    "walls" : null,
    "image" : null,
    "vertexes" : null,
    "color" : "#b651a0",
    "map_image" : null,
    "width" : 121,
    "height" : 120,
    "map_offset_x" : 5,
    "map_offset_y" : 5,
    "wall_size" : 0.2,
    "deleted_at" : null,
    "px_walls" : null
  }
]
