[
  {
    "mall_id" : null,
    "name" : "Asus X540LA (X540LA-DM798D) ",
    "description" : "",
    "image" : null,
    "created_at" : null,
    "updated_at" : null,
    "sku" : null,
    "deleted_at" : null
  },
  {
    "mall_id" : null,
    "name" : "HP 250 (W4N03EA) ",
    "description" : "",
    "image" : null,
    "created_at" : null,
    "updated_at" : null,
    "sku" : null,
    "deleted_at" : null
  },
  {
    "mall_id" : null,
    "name" : "Asus VivoBook X556UQ (X556UQ-DM484D) ",
    "description" : "",
    "image" : null,
    "created_at" : null,
    "updated_at" : null,
    "sku" : null,
    "deleted_at" : null
  },
  {
    "mall_id" : null,
    "name" : "Dell Inspiron 3552 (I35C45DIL-50) ",
    "description" : "",
    "image" : null,
    "created_at" : null,
    "updated_at" : null,
    "sku" : null,
    "deleted_at" : null
  },
  {
    "mall_id" : null,
    "name" : "Asus X540LJ (X540LJ-DM699D) ",
    "description" : "",
    "image" : null,
    "created_at" : null,
    "updated_at" : null,
    "sku" : null,
    "deleted_at" : null
  },
  {
    "mall_id" : null,
    "name" : "Dell Vostro 3568 (N008VN3568EMEA02_UBU) ",
    "description" : "",
    "image" : null,
    "created_at" : null,
    "updated_at" : null,
    "sku" : null,
    "deleted_at" : null
  },
  {
    "mall_id" : null,
    "name" : "DC-Link DC 01.03 ",
    "description" : "",
    "image" : null,
    "created_at" : null,
    "updated_at" : null,
    "sku" : null,
    "deleted_at" : null
  },
  {
    "mall_id" : null,
    "name" : "Dell OptiPlex 5040 MT (210-MT5040-i7L) ",
    "description" : "",
    "image" : null,
    "created_at" : null,
    "updated_at" : null,
    "sku" : null,
    "deleted_at" : null
  },
  {
    "mall_id" : null,
    "name" : "Apple Mac Pro A1481 (ME253UA/A) ",
    "description" : "",
    "image" : null,
    "created_at" : null,
    "updated_at" : null,
    "sku" : null,
    "deleted_at" : null
  },
  {
    "mall_id" : null,
    "name" : "HP ProDesk 400 G3 MT (T4R51EA) ",
    "description" : "",
    "image" : null,
    "created_at" : null,
    "updated_at" : null,
    "sku" : null,
    "deleted_at" : null
  }

]
